arial                          arial.ttf
arial-bold                     arialbd.ttf
arial-bold-italic              arialbi.ttf
arial-italif                   ariali.ttf
arial-black                    ariblk.ttf
transportation                 esri_6.ttf
shields                        esri_44.ttf
fritqat                         fritqat.ttf
fritqat                         fritqat.ttf
fritqat-bold                    fritqtb0.ttf
fritqat-bold-italic             fritqtb2.ttf
fritqat-italic                  fritqti0.ttf
mono                            VeraMono.ttf
mono-bold                       VeraMoBd.ttf
mono-bold-italic                VeraMoBI.ttf
mono-italic                     VeraMoIt.ttf
sans                            Vera.ttf
sans-bold                       VeraBd.ttf
sans-bold-italic                VeraBI.ttf
sans-italic                     VeraIt.ttf
serif                           VeraSe.ttf
serif-bold                      VeraSeBd.ttf
times                           times.ttf
times-bold                      timesbd.ttf
times-bold-italic               timesbi.ttf
times-italic                    timesi.ttf
lucidia-sans-unicode            l_10646.ttf

dejavusanscondensed DejaVuSansCondensed.ttf
